soortkaart,card orientation,size,size number,? 1,? 2,? 10,? 50,? 100,? 200,enveloppen,Envelop goud/zilver,prf,Parelmoer,oud-hollands,Silk MC,Fotokaart,Natuurkarton,end
single portrait,card,klein 1,5.4x8.1 cm,0,0,0,0,0,0,0,0,0,0,0,0,0,0,end
single portrait,card,postkaart,10x15 cm,2.50,2.30,2.10,1.90,1.60,1.40,0.25,0.35,1,0.1,0.1,0,0,0,end
single portrait,card,normaal 1,11.4x17.1 cm,2.60,2.40,2.20,2.00,1.80,1.50,0.25,0.35,1,0.15,0.15,0,0,0,end
single portrait,card,groot 1,14.4x21.6 cm,2.60,2.40,2.20,2.00,1.80,1.50,0.25,0.35,1,0.15,0.15,0,0,0,end
single landscape,card,klein 2,8.1x5.4 cm,0,0,0,0,0,0,0,0,0,0,0,0,0,0,end
single landscape,card,postkaart 2,15x10 cm,2.50,2.30,2.10,1.90,1.60,1.40,0.25,0.35,1,0.1,0.1,0,0,0,end
single landscape,card,normaal 2,17.1x11.4 cm,2.60,2.40,2.20,2.00,1.80,1.50,0.25,0.35,1,0.15,0.15,0,0,0,end
single landscape,card,groot 2,21.6x14.4 cm,2.60,2.40,2.20,2.00,1.80,1.50,0.25,0.35,1,0.15,0.15,0,0,0,end
single square,card,extra klein,8x8 cm,2.40,2.20,2.00,1.80,1.60,1.40,0.25,0.35,1,0.15,0.15,0,0,0,end
single square,card,klein,11x11 cm,2.50,2.30,2.10,1.90,1.60,1.40,0.25,0.35,1,0.15,0.15,0,0,0,end
single square,card,normaal,13x13 cm,2.50,2.30,2.10,1.90,1.60,1.40,0.25,0.35,1,0.15,0.15,0,0,0,end
single square,card,groot,15x15 cm,3.00,2.80,2.60,2.50,2.20,2.00,0.25,0.35,1,0.15,0.15,0,0,0,end
single belgiansquare,card,normaal 3,13.5x12 cm,0,0,0,0,0,0,0,0,0,0,0,0,0,0,end
single panorama,card,normaal 4,21x10 cm,0,0,0,0,0,0,0,0,0,0,0,0,0,0,end
single triple,card,normaal 5,30x10 cm,0,0,0,0,0,0,0,0,0,0,0,0,0,0,end
single triple,card,groot 3,39x13 cm,0,0,0,0,0,0,0,0,0,0,0,0,0,0,end
double portrait,card,postkaart,10x15 cm,2.90,2.70,2.60,2.50,2.20,2.00,0.25,0.35,1,0.25,0.25,0,0,0,end
double portrait,card,normaal 1,11.4x17.1 cm,3.00,2.70,2.60,2.50,2.20,2.00,0.25,0.35,1,0.25,0.25,0,0,0,end
double portrait,card,groot 1,14.4x21.6 cm,3.00,2.70,2.60,2.50,2.20,2.00,0.25,0.35,1,0.45,0.45,0,0,0,end
double portrait,card,extra groot 1,20x30 cm,0,0,0,0,0,0,0,0,0,0,0,0,0,0,end
double landscape,card,postkaart 2,15x10 cm,2.90,2.70,2.60,2.50,2.20,2.00,0.25,0.35,1,0.25,0.25,0,0,0,end
double landscape,card,normaal 2,17.1x11.4 cm,3.00,2.70,2.60,2.50,2.20,2.00,0.25,0.35,1,0.25,0.25,0,0,0,end
double landscape,card,groot 2,21.6x14.4 cm,3.00,2.70,2.60,2.50,2.20,2.00,0.25,0.35,1,0.45,0.45,0,0,0,end
double landscape,card,extra groot 2,30x20 cm,0,0,0,0,0,0,0,0,0,0,0,0,0,0,end
double square,card,klein,11x11 cm,3.00,2.70,2.60,2.50,2.20,2.00,0.25,0.35,1,0.2,0.2,0,0,0,end
double square,card,normaal,13x13 cm,3.00,2.70,2.60,2.50,2.20,2.00,0.25,0.35,1,0.25,0.25,0,0,0,end
double square,card,groot,15x15 cm,3.40,3.10,3.00,2.80,2.60,2.40,0.25,0.35,1,0.3,0.3,0,0,0,end
double square,card,extra groot,21x21 cm,0,0,0,0,0,0,0,0,0,0,0,0,0,0,end
double belgiansquare,card,normaal 3,13.5x12 cm,0,0,0,0,0,0,0,0,0,0,0,0,0,0,end
double panorama,card,normaal 4,21x10 cm,0,0,0,0,0,0,0,0,0,0,0,0,0,0,end